{
    "id": "regions",
    "name": "regions",
    "title": "Regions",
    "description": "A world-building helper module designed to help organize Foundry documents into regions.",
    "authors": [
        {
            "name": "Geekswordsman",
            "discord": "@Geekswordsman#3085",
            "flags": {}
        }
    ],
    "version": "2.0.1",
    "compatibility": {
        "minimum": "9",
        "verified": "10"
    },
    "minimumCoreVersion": "9",
    "compatibleCoreVersion": "10",
    "esmodules": [
        "module/main.mjs"
    ],
    "languages": [
        {
            "lang": "en",
            "name": "English",
            "path": "languages/en.json",
            "flags": {}
        }
    ],
    "styles": [
        "styles/regions.css",
        "styles/extendedSubmenu.css"
    ],
    "url": "https://gitlab.com/geekswordsman/regions",
    "manifest": "https://gitlab.com/api/v4/projects/geekswordsman%2Fregions/packages/generic/release/latest/module.json",
    "download": "https://gitlab.com/geekswordsman/regions/-/archive/v2.0.1/regions-v2.0.1.zip",
    "license": "https://gitlab.com/geekswordsman/regions/-/raw/main/LICENSE",
    "readme": "https://gitlab.com/geekswordsman/regions/-/raw/main/README.MD",
    "bugs": "https://gitlab.com/geekswordsman/regions/-/issues",
    "changelog": "https://gitlab.com/geekswordsman/regions/-/raw/main/CHANGELOG.md"
}